Missing data in R
…
Now that we have checked the results of the imputation, we run the analysis with all imputed data sets:

MI_fit = with(my_imputed_data,
              lm(Ox ~ E))

The object MI_fit is of the class mira, and contains in slote 4 for each imputed data set the result of the regression model we specified. We can look at all coeffcients:

summary(MI_fit)

## # A tibble: 200 x 5
##    term        estimate std.error statistic  p.value
##    <chr>          <dbl>     <dbl>     <dbl>    <dbl>
##  1 (Intercept)   0.0222    0.0342     0.650 5.16e- 1
##  2 E             0.738     0.0352    20.9   5.02e-81
##  3 (Intercept)  -0.0170    0.0339    -0.500 6.17e- 1
##  4 E             0.742     0.0350    21.2   8.63e-83
##  5 (Intercept)   0.0845    0.0337     2.51  1.22e- 2
##  6 E             0.756     0.0347    21.8   2.35e-86
##  7 (Intercept)   0.0323    0.0342     0.944 3.46e- 1
##  8 E             0.778     0.0353    22.1   3.12e-88
##  9 (Intercept)   0.0415    0.0333     1.25  2.13e- 1
## 10 E             0.754     0.0343    21.9   2.30e-87
## # ... with 190 more rows
…
